<?xml version="1.0" encoding="UTF-8"?>
<svg width="16px" height="16px" viewBox="0 0 16 16" version="1.1" xmlns="http://www.w3.org/2000/svg" xmlns:xlink="http://www.w3.org/1999/xlink">
    <!-- Generator: Sketch 47.1 (45422) - http://www.bohemiancoding.com/sketch -->
    <title>Fill 1</title>
    <desc>Created with Sketch.</desc>
    <defs></defs>
    <g id="Page-1" stroke="none" stroke-width="1" fill="none" fill-rule="evenodd">
        <g id="Home-1024px" transform="translate(-943.000000, -92.000000)" fill="#666666">
            <g id="My-cart" transform="translate(341.000000, 67.000000)">
                <g id="Page-1" transform="translate(602.000000, 25.000000)">
                    <path d="M8,9.91877346 L13.6838035,15.6026412 C13.9400531,15.8588938 14.2807847,16 14.6431342,16 C15.0055741,16 15.3463056,15.8588938 15.6025553,15.6026412 C15.8588954,15.3462982 16,15.0055628 16,14.6432093 C16,14.2808557 15.8588049,13.9401203 15.6025553,13.6838678 L15.6025553,13.6837773 L9.91875177,8 L15.6025553,2.31622269 C15.8588049,2.05997015 15.9999095,1.71923477 15.9999095,1.35679074 C15.9999095,0.994437158 15.8588954,0.653701777 15.6026457,0.397449233 C15.3463056,0.141106237 15.0055741,0 14.6431342,0 C14.2807847,0 13.9400531,0.141196689 13.6838939,0.397449233 L8,6.08122654 L2.31610605,0.397449233 C2.05994686,0.141106237 1.71921533,0 1.35686585,0 C0.994335463,0 0.653694386,0.141106237 0.39744474,0.397358781 C0.141195093,0.653701777 9.04516931e-05,0.994437158 9.04516931e-05,1.35688119 C9.04516931e-05,1.71923477 0.141195093,2.05997015 0.39744474,2.31622269 L6.08124823,8 L0.397535191,13.6837773 C0.141195093,13.9401203 9.04516931e-05,14.2809461 0,14.6432997 C0,15.0056533 0.141104641,15.3463887 0.397354288,15.6025508 C0.653694386,15.8588938 0.994516366,16 1.3569563,16 C1.71921533,16 2.05994686,15.8588938 2.31610605,15.6026412 L8,9.91877346 Z" id="Fill-1"></path>
                </g>
            </g>
        </g>
    </g>
</svg>